aula_2_extraindo_dados_pdf
…
Observe que o output desse código foi uma lista de datasets, nosso trabalho agora é preparar esses dados para serem analisados. Primeiro vamos mudar o formato dos dados, iremos transformar esse conjunto de listas em um dataset, onde a 1° coluna conterá todos os datasets, e cada linha vai conter um dos data.frames

dataset %>% 
  tibble(datasets =. )

# A tibble: 24 × 1
   datasets     
   <list>       
 1 <df [39 × 8]>
 2 <df [26 × 8]>
 3 <df [0 × 8]> 
 4 <df [1 × 8]> 
 5 <df [26 × 8]>
 6 <df [0 × 8]> 
 7 <df [28 × 8]>
 8 <df [17 × 8]>
 9 <df [44 × 8]>
10 <df [44 × 8]>
# ℹ 14 more rows

Nosso objetivo agora é transformar esse dataset que contém datasets dentro das celulas da coluna datasets em um conjuto de dados comum.Vamos criar uma nova estrutura de dados, transformando os dados para texto e finalmente “desenrola” os elementos da lista para formar um novo conjunto de dados.

dataset %>% 
  tibble(datasets =. ) %>% 
  #Transforma todas as variáveis para character, para evitar erro de empilhamento de variáveis com tipos diferentes
  mutate(datasets = map(datasets, ~.x %>% mutate_all(as.character))) %>% 
  #desenlistando os dados para um formato tabular
  unnest(datasets)

# A tibble: 756 × 8
   Município      UF    Dimensão.E Dimensão.S Dimensão.R Dimensão.I ISLU  Classe
   <chr>          <chr> <chr>      <chr>      <chr>      <chr>      <chr> <chr> 
 1 Abaré          BA    0,623      0,896      0,000      0,537      0,527 D     
 2 Alagoinhas     BA    0,693      0,678      0,001      1,000      0,604 C     
 3 Amargosa       BA    0,676      0,740      0,000      0,898      0,589 D     
 4 Andorinha      BA    0,537      0,928      0,000      0,541      0,506 D     
 5 Aporá          BA    0,595      0,824      0,000      0,710      0,540 D     
 6 Baianópolis    BA    0,49       0,919      0,000      0,622      0,506 D     
 7 Barra          BA    0,545      0,847      0,000      0,612      0,506 D     
 8 Barra do Choça BA    0,573      0,833      0,001      0,592      0,508 D     
 9 Barra do Mend… BA    0,609      0,854      0,000      0,941      0,602 C     
10 Barra do Rocha BA    0,585      0,848      0,000      0,000      0,385 E     
# ℹ 746 more rows
…
Rows: 104 Columns: 1
── Column specification ────────────────────────────────────────────────────────
Delimiter: ","
chr (1): X1

ℹ Use `spec()` to retrieve the full column specification for this data.
ℹ Specify the column types or set `show_col_types = FALSE` to quiet this message.

dados

# A tibble: 104 × 1
   X1                                                                           
   <chr>                                                                        
 1 154                                                                          
 2 Sunday Morning Political Cartoon Thread (self.politics)                      
 3 submitted 1 dia ago * by optimalg[M] - announcement                          
 4 77 comentárioscompartilharsalvarocultargive awarddenunciarcrosspost          
 5 28.7k                                                                        
 6 Clarence Thomas says American citizens are seemingly more interested in thei…
 7 submitted 7 hours ago by Sensate602                                          
 8 4654 comentárioscompartilharsalvarocultargive awarddenunciarcrosspost        
 9 13.6k                                                                        
10 Democrats more likely to vote in midterms after abortion ruling: poll (thehi…
# ℹ 94 more rows

Olhar pro dataset acima e não ver ele estruturado em colunas, e cada linha da primeira coluna não ter nenhum sentido pode ser aterrador, mas após superar o primeiro espanto e olhar com cuidado como os dados estão dispostos podemos ver que existe sim uma estrutura de como os dados estão apresentados.

A cada 4 linhas a mesma estrutura se repete, onde na primeira linha temos um valor numérico, a saber o número de votos que o tópico teve no reddit, na segunda linha o título do tópico, na terceira linha a descrição do tópico e na quarta as interações com o tópico. A partir disso podemos começar a estruturar nossos dados

dados %>% 
   mutate(
     #criar uma coluna que repita os termos votos, titulo, descricao e iteracao 26x
     index = rep( 
                 c("votos", "titulo",
                   "descricao", "interacao"), 
                     26)
     )

# A tibble: 104 × 2
   X1                                                                      index
   <chr>                                                                   <chr>
 1 154                                                                     votos
 2 Sunday Morning Political Cartoon Thread (self.politics)                 titu…
 3 submitted 1 dia ago * by optimalg[M] - announcement                     desc…
 4 77 comentárioscompartilharsalvarocultargive awarddenunciarcrosspost     inte…
 5 28.7k                                                                   votos
 6 Clarence Thomas says American citizens are seemingly more interested i… titu…
 7 submitted 7 hours ago by Sensate602                                     desc…
 8 4654 comentárioscompartilharsalvarocultargive awarddenunciarcrosspost   inte…
 9 13.6k                                                                   votos
10 Democrats more likely to vote in midterms after abortion ruling: poll … titu…
# ℹ 94 more rows
…
   mutate(
     #criar uma coluna que repita os termos votos, titulo, descricao e iteracao 26x
     index = rep( 
                 c("votos", "titulo",
                   "descricao", "interacao"), 
                     26)
     ) %>% 
  #criando novas colunas com base nos valores da coluna index
  pivot_wider(
    names_from = index, # os titulos das novas colunas virão da var index
    values_from = X1 # os valores serão preenchidos com a coluna X1
    ) %>% 
  unnest_longer(everything())

# A tibble: 26 × 4
   votos titulo                                              descricao interacao
   <chr> <chr>                                               <chr>     <chr>    
 1 154   Sunday Morning Political Cartoon Thread (self.poli… submitte… 77 comen…
 2 28.7k Clarence Thomas says American citizens are seeming… submitte… 4654 com…
 3 13.6k Democrats more likely to vote in midterms after ab… submitte… 1218 com…
 4 26.7k Ilhan Omar Says Plan to Fix Supreme Court Must Inc… submitte… 1361 com…
 5 7271  Progressives Turn Up the Heat on Biden to Do Liter… submitte… 1302 com…
 6 6112  Alexandria Ocasio-Cortez calls for supreme court j… submitte… 304 come…
 7 2970  Petition to impeach Clarence Thomas passes 300,000… submitte… 183 come…
 8 9715  Let’s call the overturning of Roe v Wade what it i… submitte… 1038 com…
 9 5997  States With Abortion Bans to Mothers: Drop Dead — … submitte… 235 come…
10 3181  Majority of people disagree with Supreme Court’s d… submitte… 212 come…
# ℹ 16 more rows
…
dados_organizados

# A tibble: 26 × 8
   votos titulo       interacao n_comentarios tempo_de_vida autor fonte_noticias
   <chr> <chr>        <chr>     <chr>         <chr>         <chr> <chr>         
 1 154   Sunday Morn… 77 comen… 77 comentári… submitted 1 … <NA>  (self.politic…
 2 28.7k Clarence Th… 4654 com… 4654 comentá… submitted 7 … ago … (businessinsi…
 3 13.6k Democrats m… 1218 com… 1218 comentá… submitted 8 … ago … (thehill.com) 
 4 26.7k Ilhan Omar … 1361 com… 1361 comentá… submitted 9 … ago … (commondreams…
 5 7271  Progressive… 1302 com… 1302 comentá… submitted 7 … ago … (motherjones.…
 6 6112  Alexandria … 304 come… 304 comentár… submitted 6 … ago … (theguardian.…
 7 2970  Petition to… 183 come… 183 comentár… submitted 3 … ago … (newsweek.com)
 8 9715  Let’s call … 1038 com… 1038 comentá… submitted 8 … ago … (theguardian.…
 9 5997  States With… 235 come… 235 comentár… submitted 8 … ago … (motherjones.…
10 3181  Majority of… 212 come… 212 comentár… submitted 5 … ago … (news4jax.com)
# ℹ 16 more rows
# ℹ 1 more variable: descricao <chr>

Dando uma ultima polida

dados_organizados %>% 
select(-descricao, -interacao) %>%
  mutate(n_comentarios = as.numeric(str_extract(n_comentarios, "[\\d?]")),
         tempo_de_vida = str_remove(tempo_de_vida, "submitted "),
         autor = str_remove(autor, "ago by "))

# A tibble: 26 × 6
   votos titulo                 n_comentarios tempo_de_vida autor fonte_noticias
   <chr> <chr>                          <dbl> <chr>         <chr> <chr>         
 1 154   Sunday Morning Politi…             7 1 dia         <NA>  (self.politic…
 2 28.7k Clarence Thomas says …             4 7 hours       Sens… (businessinsi…
 3 13.6k Democrats more likely…             1 8 hours       Crot… (thehill.com) 
 4 26.7k Ilhan Omar Says Plan …             1 9 hours       more… (commondreams…
 5 7271  Progressives Turn Up …             1 7 hours       Stuf… (motherjones.…
 6 6112  Alexandria Ocasio-Cor…             3 6 hours       Grou… (theguardian.…
 7 2970  Petition to impeach C…             1 3 hours       Arpi… (newsweek.com)
 8 9715  Let’s call the overtu…             1 8 hours       misa… (theguardian.…
 9 5997  States With Abortion …             2 8 hours       Pict… (motherjones.…
10 3181  Majority of people di…             2 5 hours       jorm… (news4jax.com)
# ℹ 16 more rows
