aula_1_paginas_estaticas
…
Em alguns casos nossos dados a serem raspados já estão estruturados em formato tabular, em casos como esse nosso trabalho é muito menor, pois só precisamos importar essa tabela para o ambiente do R

Imagine que temos o seguinte problema, precisamos uma fonte que disponibilize os dados de população dos paises ao redor do globo, e encontramos esses dados na página do wikipedia, onde a existe uma tabela com os dados já sistematizados, todavia devido aos 192 casos a coleta manual está descartada, como coletamos esses dados?

De maneira muito simples:

#Indicamos a url que contém a tabela que deverá ser lida
url <- "https://pt.wikipedia.org/wiki/Lista_de_pa%C3%ADses_por_popula%C3%A7%C3%A3o"

url |>
  rvest::read_html() |> # função que executa a leitura do conteudo html ou xml da URL
  rvest::html_table() # função que extrai as tabelas da url em formato tibble

[[1]]
# A tibble: 250 × 6
   ``    Posição `País (ou território dependente)` `Estimativa da ONU`  Data
   <lgl> <chr>   <chr>                             <chr>               <int>
 1 NA    1       Índia                             1 429 921 746        2023
 2 NA    2       China                             1 426 391 281        2023
 3 NA    3       Estados Unidos                    339 987 103          2023
 4 NA    4       Indonésia                         277 184 719          2023
 5 NA    5       Paquistão                         240 215 932          2023
 6 NA    6       Nigéria                           223 899 057          2023
 7 NA    7       Brasil                            203 062 512          2022
 8 NA    8       Bangladesh                        172 452 382          2023
 9 NA    9       Rússia                            148 221 749          2023
10 NA    10      México                            134 127 189          2023
# ℹ 240 more rows
# ℹ 1 more variable: `Estimativa Oficial` <chr>
…
O nosso código acima já coletou as tabelas disponibilizadas no link, todavia só nos interessa a 1 tabela. Para selecionar apenas a tabela alvo e não trazer todas as que estão contidas na página é muito simples:

url <- "https://pt.wikipedia.org/wiki/Lista_de_pa%C3%ADses_por_popula%C3%A7%C3%A3o"

url |>
  rvest::read_html() |> # função que executa a leitura do conteudo html ou xml da URL
  rvest::html_table() |> # função que extrai as tabelas da url em formato tibble
  purrr::pluck(1) # função que seleciona o 1° elemento da lista 

# A tibble: 250 × 6
   ``    Posição `País (ou território dependente)` `Estimativa da ONU`  Data
   <lgl> <chr>   <chr>                             <chr>               <int>
 1 NA    1       Índia                             1 429 921 746        2023
 2 NA    2       China                             1 426 391 281        2023
 3 NA    3       Estados Unidos                    339 987 103          2023
 4 NA    4       Indonésia                         277 184 719          2023
 5 NA    5       Paquistão                         240 215 932          2023
 6 NA    6       Nigéria                           223 899 057          2023
 7 NA    7       Brasil                            203 062 512          2022
 8 NA    8       Bangladesh                        172 452 382          2023
 9 NA    9       Rússia                            148 221 749          2023
10 NA    10      México                            134 127 189          2023
# ℹ 240 more rows
# ℹ 1 more variable: `Estimativa Oficial` <chr>

Digamos que temos um outro problema, em que precisamos saber a chance que um time tem de vencer o outro no campeonato brasileiro, sabemos que o site chance de gol disponibiliza essas informações, entretanto como fazemos para coletar esses dados?

"https://chancedegol.com.br/br23.htm" %>% #link que será raspado
  rvest::read_html() %>% #lendo o dados em formato html
  rvest::html_table() %>%  # lendo apenas as tabelas da página
  purrr::pluck(8) #selecionando apenas as tabelas com as probabilidades

# A tibble: 218 × 7
   X1         X2                  X3    X4            X5             X6    X7   
   <chr>      <chr>               <chr> <chr>         <chr>          <chr> <chr>
 1 Data       Mandante            ""    Visitante     Vitória doMan… Empa… Vitó…
 2 15/04/2023 Botafogo            "2x1" São Paulo     36.9 %         27.9… 35.2…
 3 15/04/2023 Palmeiras           "2x1" Cuiabá        74.0 %         18.6… 7.4 %
 4 15/04/2023 Red Bull Bragantino "2x1" Bahia         56.7 %         23.7… 19.6…
 5 15/04/2023 Atlético MG         "1x2" Vasco         55.1 %         25.9… 19.0…
 6 15/04/2023 Athletico PR        "2x0" Goiás         61.1 %         22.7… 16.2…
 7 15/04/2023 Fortaleza           "1x1" Internacional 44.9 %         25.2… 30.0…
 8 15/04/2023 América MG          "0x3" Fluminense    31.0 %         25.5… 43.5…
 9 16/04/2023 Flamengo            "3x0" Coritiba      73.0 %         18.8… 8.2 %
10 16/04/2023 Corinthians         "2x1" Cruzeiro      56.7 %         26.4… 16.8…
# ℹ 208 more rows

Em alguns casos os dados ficam estruturados de maneira incorreta e precisamos fazer a correção manualmente

# Manipulação dos Dados

"https://chancedegol.com.br/br23.htm" |> # url que será raspada
  rvest::read_html() |> # lendo os dados em formato html
  rvest::html_table() |> # lendo as tabelas das páginas
  purrr::pluck(2) |> # selecionando a tabela 2
  dplyr::slice(64:281) |> # selecionando as linhas que contém as informações desejadas
  dplyr::select(X1:X6) |> # selecionando as colunas com informações válidas
  janitor::row_to_names(row_number = 1) # corrigindo o nome das colunas

# A tibble: 217 × 6
   Data       Mandante            ``    Visitante    `Vitória doMandante` Empate
   <chr>      <chr>               <chr> <chr>        <chr>                <chr> 
 1 15/04/2023 Botafogo            2x1   São Paulo    36.9 %               27.9 %
 2 15/04/2023 Palmeiras           2x1   Cuiabá       74.0 %               18.6 %
 3 15/04/2023 Red Bull Bragantino 2x1   Bahia        56.7 %               23.7 %
 4 15/04/2023 Atlético MG         1x2   Vasco        55.1 %               25.9 %
 5 15/04/2023 Athletico PR        2x0   Goiás        61.1 %               22.7 %
 6 15/04/2023 Fortaleza           1x1   Internacion… 44.9 %               25.2 %
 7 15/04/2023 América MG          0x3   Fluminense   31.0 %               25.5 %
 8 16/04/2023 Flamengo            3x0   Coritiba     73.0 %               18.8 %
 9 16/04/2023 Corinthians         2x1   Cruzeiro     56.7 %               26.4 %
10 16/04/2023 Grêmio              1x0   Santos       59.5 %               24.1 %
# ℹ 207 more rows
…
Em alguns casos a melhor estratégia é estruturar a informação em formato de dataset a partir de um campo mais ou menos estruturado em linguagem natural. Nesse caso vamos usar o nodo que contém toda a informação do anuncio e vamos estruturar o dataset a partir dele.

anuncio_amazon <- url|> # url que será raspada
  read_html() |> # lendo o html da página
  html_nodes('.s-card-border' )  #lendo as informações do anuncio

tibble(
  # criamos uma coluna com o texto do título do anuncio
  nome = anuncio_amazon |> html_node(".s-line-clamp-4") |> html_text(trim = T),
  # criamos uma coluna com o valor do anuncio
  valor = anuncio_amazon |> html_node(".a-offscreen") |> html_text(trim = T)
) 

# A tibble: 60 × 2
   nome                                                                    valor
   <chr>                                                                   <chr>
 1 Par Anilha Olímpica Bumper Cross Training de Borracha Hi Temp 10kg D1f… R$ 7…
 2 Par Anilha Olímpica Bumper Cross Training de Borracha Hi Temp 5kg D1fi… R$ 3…
 3 Anilha Olímpica Poliuretano com 12 Faces de 1,25kg Wellness - WK015     R$ 7…
 4 Anilha Olímpica Bumper Hi Temp Lpo 5kg - Borracha vulcanizada D1fitness R$ 1…
 5 Anilha Olímpica Borracha New Bumper Plate 10kg Wellness - Multilaser, … R$ 3…
 6 Anilha Olímpica Vollo 2.5kg                                             R$ 1…
 7 Kit 10 Anilhas Olímpica Bumper Cross Training de Borracha Hi Temp 5kg … R$ 1…
 8 Anilha Olímpica Borracha Amarelo New Bumper Plate 15kg Wellness - WK008 R$ 4…
 9 Anilha Olímpica Poliuretano com 12 Faces de 2,50kg Wellness - WK017     R$ 1…
10 Lock Jaw Cross Par Presilha Barra Olimpica 2 50mm - Odin Fit            R$ 3…
# ℹ 50 more rows
…
  anuncios_amazon_df <- tibble(
    nome = anuncio_amazon |> html_node(".s-line-clamp-4") |> html_text(trim = T),
    valor = anuncio_amazon |> html_node(".a-offscreen") |> html_text(trim = T)
    )
  }

Agora fazemos a iteração, aplicando essa função a cada uma das páginas da amazon

map_dfr(
  url,
  pega_info_anuncio
)

# A tibble: 240 × 2
   nome                                                                    valor
   <chr>                                                                   <chr>
 1 Whey Concentrado 100% Whey Protein 3VS Nutrition - 900g (Pistache)      R$ 1…
 2 Whey Protein Concentrado 1kg - Chocolate Belga - Importado - Soldiers … R$ 8…
 3 Mega Whey Protein 900g - Iridium Labs Sabor:Chocolate                   R$ 6…
 4 Whey Protein 3W 1kg - SABORES (MORANGO)                                 R$ 5…
 5 Nutri Whey Protein 907g Integralmedica - Baunilha - 907g                R$ 5…
 6 100% Whey - 900G Baunilha - Max Titanium, Max Titanium                  R$ 1…
 7 Nutri Whey Protein Morango - Pouch 907g                                 R$ 5…
 8 100% Whey - 900G Chocolate - Max Titanium, Max Titanium                 R$ 1…
 9 Top Whey 3W Chocolate, Max Titanium, 900g                               R$ 1…
10 100% Pure Whey, Probiótica, Baunilha, 900 G                             R$ 9…
# ℹ 230 more rows
